Portfolio trading strategy example | Fastback.jl
…
Equity balances (1)
┌─────┬──────────┐
│     │    Value │
├─────┼──────────┤
│ USD │ 13458.47 │
└─────┴──────────┘

Positions (0)

Trades (134)
┌─────┬────────┬─────────────────────┬────────┬────────┬────────┬────┬────┬─────┬──────────┬──────────┬────────────────┬──────────────┬───────┐
│  ID │ Symbol │                Date │    Qty │ Filled │  Price │ TP │ SL │ Ccy │ Fill P&L │   Cash Δ │ Return (gross) │ Return (net) │ Comm. │
├─────┼────────┼─────────────────────┼────────┼────────┼────────┼────┼────┼─────┼──────────┼──────────┼────────────────┼──────────────┼───────┤
│   1 │   AAPL │ 2022-01-12 21:00:00 │  11.54 │  11.54 │ 173.33 │  — │  — │ USD │     0.00 │ -2002.00 │              — │            — │  2.00 │
│   2 │     GE │ 2022-01-14 21:00:00 │  24.94 │  24.94 │  79.94 │  — │  — │ USD │     0.00 │ -1995.99 │              — │            — │  1.99 │
│   3 │   AAPL │ 2022-01-19 21:00:00 │ -11.54 │ -11.54 │ 164.14 │  — │  — │ USD │  -105.96 │  1892.14 │         -5.30% │       -5.49% │  1.89 │
│   4 │     GE │ 2022-01-19 21:00:00 │ -24.94 │ -24.94 │  77.98 │  — │  — │ USD │   -49.10 │  1942.95 │         -2.46% │       -2.66% │  1.94 │
│   5 │     GE │ 2022-02-01 21:00:00 │  25.92 │  25.92 │  75.91 │  — │  — │ USD │     0.00 │ -1969.39 │              — │            — │  1.97 │
│   6 │   NVDA │ 2022-02-02 21:00:00 │   7.80 │   7.80 │ 252.07 │  — │  — │ USD │     0.00 │ -1969.36 │              — │            — │  1.97 │
│   7 │     GE │ 2022-02-09 21:00:00 │ -25.92 │ -25.92 │  76.91 │  — │  — │ USD │    26.11 │  1991.54 │          1.33% │        1.13% │  1.99 │
│   8 │   NVDA │ 2022-02-11 21:00:00 │  -7.80 │  -7.80 │ 239.16 │  — │  — │ USD │  -100.78 │  1864.74 │         -5.12% │       -5.32% │  1.87 │
│   9 │     GE │ 2022-03-11 21:00:00 │  27.26 │  27.26 │  71.58 │  — │  — │ USD │     0.00 │ -1952.88 │              — │            — │  1.95 │
│  10 │   AAPL │ 2022-03-18 20:00:00 │  12.12 │  12.12 │ 162.13 │  — │  — │ USD │     0.00 │ -1966.25 │              — │            — │  1.96 │
│  11 │   NVDA │ 2022-03-18 20:00:00 │   7.43 │   7.43 │ 264.21 │  — │  — │ USD │     0.00 │ -1966.11 │              — │            — │  1.96 │
│  12 │   TSLA │ 2022-03-18 20:00:00 │   6.51 │   6.51 │ 301.80 │  — │  — │ USD │     0.00 │ -1965.71 │              — │            — │  1.96 │
│  13 │   NVDA │ 2022-03-23 20:00:00 │  -7.43 │  -7.43 │ 256.03 │  — │  — │ USD │   -60.81 │  1901.43 │         -3.10% │       -3.29% │  1.90 │
│  14 │     GE │ 2022-03-28 20:00:00 │ -27.26 │ -27.26 │  71.36 │  — │  — │ USD │    -5.92 │  1943.07 │         -0.30% │       -0.50% │  1.95 │
│  15 │   AAPL │ 2022-03-31 20:00:00 │ -12.12 │ -12.12 │ 172.64 │  — │  — │ USD │   127.33 │  2089.52 │          6.48% │        6.28% │  2.09 │
│   ⋮ │      ⋮ │                   ⋮ │      ⋮ │      ⋮ │      ⋮ │  ⋮ │  ⋮ │   ⋮ │        ⋮ │        ⋮ │              ⋮ │            ⋮ │     ⋮ │
│ 120 │   NVDA │ 2024-01-09 21:00:00 │   4.60 │   4.60 │ 531.40 │  — │  — │ USD │     0.00 │ -2448.16 │              — │            — │  2.45 │
│ 121 │     GE │ 2024-01-16 21:00:00 │ -19.00 │ -19.00 │ 127.97 │  — │  — │ USD │   -15.39 │  2428.39 │         -0.63% │       -0.83% │  2.43 │
│ 122 │   AAPL │ 2024-01-23 21:00:00 │  12.83 │  12.83 │ 194.93 │  — │  — │ USD │     0.00 │ -2504.12 │              — │            — │  2.50 │
│ 123 │   AAPL │ 2024-01-25 21:00:00 │ -12.83 │ -12.83 │ 193.92 │  — │  — │ USD │   -12.95 │  2486.19 │         -0.52% │       -0.72% │  2.49 │
│ 124 │   TSLA │ 2024-02-09 21:00:00 │  13.50 │  13.50 │ 193.57 │  — │  — │ USD │     0.00 │ -2615.51 │              — │            — │  2.61 │
│ 125 │     GE │ 2024-02-12 21:00:00 │  18.64 │  18.64 │ 140.17 │  — │  — │ USD │     0.00 │ -2614.99 │              — │            — │  2.61 │
│ 126 │   TSLA │ 2024-02-13 21:00:00 │ -13.50 │ -13.50 │ 184.02 │  — │  — │ USD │  -128.91 │  2481.51 │         -4.93% │       -5.13% │  2.48 │
│ 127 │   NVDA │ 2024-02-16 21:00:00 │  -4.60 │  -4.60 │ 726.13 │  — │  — │ USD │   896.22 │  3338.60 │         36.64% │       36.41% │  3.34 │
│ 128 │   NVDA │ 2024-03-05 21:00:00 │   3.09 │   3.09 │ 859.64 │  — │  — │ USD │     0.00 │ -2657.92 │              — │            — │  2.66 │
│ 129 │   NVDA │ 2024-03-11 20:00:00 │  -3.09 │  -3.09 │ 857.74 │  — │  — │ USD │    -5.87 │  2646.75 │         -0.22% │       -0.42% │  2.65 │
│ 130 │   NVDA │ 2024-03-21 20:00:00 │   2.98 │   2.98 │ 914.35 │  — │  — │ USD │     0.00 │ -2725.75 │              — │            — │  2.72 │
│ 131 │     GE │ 2024-03-25 20:00:00 │ -18.64 │ -18.64 │ 173.49 │  — │  — │ USD │   620.99 │  3230.14 │         23.77% │       23.55% │  3.23 │
│ 132 │   NVDA │ 2024-03-27 20:00:00 │  -2.98 │  -2.98 │ 902.50 │  — │  — │ USD │   -35.29 │  2685.05 │         -1.30% │       -1.49% │  2.69 │
│ 133 │     GE │ 2024-04-08 20:00:00 │  17.27 │  17.27 │ 156.52 │  — │  — │ USD │     0.00 │ -2705.21 │              — │            — │  2.70 │
│ 134 │     GE │ 2024-04-15 20:00:00 │ -17.27 │ -17.27 │ 153.70 │  — │  — │ USD │   -48.69 │  2651.16 │         -1.80% │       -2.00% │  2.65 │
└─────┴────────┴─────────────────────┴────────┴────────┴────────┴────┴────┴─────┴──────────┴──────────┴────────────────┴──────────────┴───────┘
                                                                                                                               104 rows omitted
…
