Systematic short put spread example | Fastback.jl
…
Equity balances (1)
┌─────┬──────────┐
│     │    Value │
├─────┼──────────┤
│ USD │ 99518.05 │
└─────┴──────────┘

Positions (0)

Trades (32)
┌────┬───────────────────┬────────────┬─────┬────────┬───────┬────┬────┬─────┬──────────┬──────────┬────────────────┬──────────────┬───────┐
│ ID │            Symbol │       Date │ Qty │ Filled │ Price │ TP │ SL │ Ccy │ Fill P&L │   Cash Δ │ Return (gross) │ Return (net) │ Comm. │
├────┼───────────────────┼────────────┼─────┼────────┼───────┼────┼────┼─────┼──────────┼──────────┼────────────────┼──────────────┼───────┤
│  1 │ SPY_20260213_P430 │ 2026-01-02 │   3 │      3 │  2.95 │  — │  — │ USD │     0.00 │  -886.65 │              — │            — │  1.95 │
│  2 │ SPY_20260213_P440 │ 2026-01-02 │  -3 │     -3 │  5.28 │  — │  — │ USD │     0.00 │  1580.70 │              — │            — │  1.95 │
│  3 │ SPY_20260213_P430 │ 2026-02-13 │  -3 │     -3 │  0.00 │  — │  — │ USD │  -884.70 │     0.00 │       -100.00% │     -100.00% │  0.00 │
│  4 │ SPY_20260213_P440 │ 2026-02-13 │   3 │      3 │  0.00 │  — │  — │ USD │  1582.65 │    -0.00 │        100.00% │      100.00% │  0.00 │
│  5 │ SPY_20260327_P420 │ 2026-02-13 │   3 │      3 │  3.25 │  — │  — │ USD │     0.00 │  -976.23 │              — │            — │  1.95 │
│  6 │ SPY_20260327_P430 │ 2026-02-13 │  -3 │     -3 │  5.55 │  — │  — │ USD │     0.00 │  1663.32 │              — │            — │  1.95 │
│  7 │ SPY_20260327_P420 │ 2026-03-27 │  -3 │     -3 │  0.00 │  — │  — │ USD │  -974.28 │     0.00 │       -100.00% │     -100.00% │  0.00 │
│  8 │ SPY_20260327_P430 │ 2026-03-27 │   3 │      3 │  0.00 │  — │  — │ USD │  1665.27 │    -0.00 │        100.00% │      100.00% │  0.00 │
│  9 │ SPY_20260508_P415 │ 2026-03-27 │   3 │      3 │  4.28 │  — │  — │ USD │     0.00 │ -1287.39 │              — │            — │  1.95 │
│ 10 │ SPY_20260508_P425 │ 2026-03-27 │  -3 │     -3 │  6.78 │  — │  — │ USD │     0.00 │  2030.55 │              — │            — │  1.95 │
│ 11 │ SPY_20260508_P415 │ 2026-05-08 │  -3 │     -3 │  1.48 │  — │  — │ USD │  -842.28 │   443.16 │        -65.52% │      -65.52% │  0.00 │
│ 12 │ SPY_20260508_P425 │ 2026-05-08 │   3 │      3 │ 11.48 │  — │  — │ USD │ -1410.66 │ -3443.16 │        -69.41% │      -69.41% │  0.00 │
│ 13 │ SPY_20260619_P390 │ 2026-05-08 │   3 │      3 │  3.14 │  — │  — │ USD │     0.00 │  -943.26 │              — │            — │  1.95 │
│ 14 │ SPY_20260619_P400 │ 2026-05-08 │  -3 │     -3 │  5.33 │  — │  — │ USD │     0.00 │  1595.55 │              — │            — │  1.95 │
│ 15 │ SPY_20260619_P390 │ 2026-06-19 │  -3 │     -3 │  0.00 │  — │  — │ USD │  -941.31 │     0.00 │       -100.00% │     -100.00% │  0.00 │
│  ⋮ │                 ⋮ │          ⋮ │   ⋮ │      ⋮ │     ⋮ │  ⋮ │  ⋮ │   ⋮ │        ⋮ │        ⋮ │              ⋮ │            ⋮ │     ⋮ │
│ 18 │ SPY_20260731_P435 │ 2026-06-19 │  -3 │     -3 │  5.05 │  — │  — │ USD │     0.00 │  1512.99 │              — │            — │  1.95 │
│ 19 │ SPY_20260731_P425 │ 2026-07-31 │  -3 │     -3 │  0.00 │  — │  — │ USD │  -788.94 │     0.00 │       -100.00% │     -100.00% │  0.00 │
│ 20 │ SPY_20260731_P435 │ 2026-07-31 │   3 │      3 │  2.46 │  — │  — │ USD │   775.50 │  -739.44 │         51.19% │       51.19% │  0.00 │
│ 21 │ SPY_20260911_P410 │ 2026-07-31 │   3 │      3 │  3.59 │  — │  — │ USD │     0.00 │ -1079.19 │              — │            — │  1.95 │
│ 22 │ SPY_20260911_P420 │ 2026-07-31 │  -3 │     -3 │  5.90 │  — │  — │ USD │     0.00 │  1768.20 │              — │            — │  1.95 │
│ 23 │ SPY_20260911_P410 │ 2026-09-11 │  -3 │     -3 │  0.00 │  — │  — │ USD │ -1077.24 │     0.00 │       -100.00% │     -100.00% │  0.00 │
│ 24 │ SPY_20260911_P420 │ 2026-09-11 │   3 │      3 │  0.00 │  — │  — │ USD │  1770.15 │    -0.00 │        100.00% │      100.00% │  0.00 │
│ 25 │ SPY_20261023_P405 │ 2026-09-11 │   3 │      3 │  2.85 │  — │  — │ USD │     0.00 │  -857.52 │              — │            — │  1.95 │
│ 26 │ SPY_20261023_P415 │ 2026-09-11 │  -3 │     -3 │  5.03 │  — │  — │ USD │     0.00 │  1507.86 │              — │            — │  1.95 │
│ 27 │ SPY_20261023_P405 │ 2026-10-23 │  -3 │     -3 │  0.00 │  — │  — │ USD │  -855.57 │     0.00 │       -100.00% │     -100.00% │  0.00 │
│ 28 │ SPY_20261023_P415 │ 2026-10-23 │   3 │      3 │  0.00 │  — │  — │ USD │  1509.81 │    -0.00 │        100.00% │      100.00% │  0.00 │
│ 29 │ SPY_20261204_P435 │ 2026-10-23 │   3 │      3 │  2.47 │  — │  — │ USD │     0.00 │  -742.71 │              — │            — │  1.95 │
│ 30 │ SPY_20261204_P445 │ 2026-10-23 │  -3 │     -3 │  4.89 │  — │  — │ USD │     0.00 │  1464.42 │              — │            — │  1.95 │
│ 31 │ SPY_20261204_P435 │ 2026-12-04 │  -3 │     -3 │  0.00 │  — │  — │ USD │  -740.76 │     0.00 │       -100.00% │     -100.00% │  0.00 │
│ 32 │ SPY_20261204_P445 │ 2026-12-04 │   3 │      3 │  7.67 │  — │  — │ USD │  -835.89 │ -2302.26 │        -57.00% │      -57.00% │  0.00 │
└────┴───────────────────┴────────────┴─────┴────────┴───────┴────┴────┴─────┴──────────┴──────────┴────────────────┴──────────────┴───────┘
                                                                                                                              2 rows omitted
…
