USD-M perpetual trading · Fastback.jl
…
Equity balances (1)
┌──────┬──────────┐
│      │    Value │
├──────┼──────────┤
│ USDT │ 13008.45 │
└──────┴──────────┘

Positions (0)

Trades (614)
┌─────┬──────────────┬─────────────────────┬────────┬────────┬─────────┬────┬───
│  ID │       Symbol │                Date │    Qty │ Filled │   Price │ TP │  ⋯
├─────┼──────────────┼─────────────────────┼────────┼────────┼─────────┼────┼───
│   1 │ BTCUSDT-PERP │ 2024-01-01 23:00:00 │ -0.717 │ -0.717 │ 41867.0 │  — │  ⋯
│   2 │ BTCUSDT-PERP │ 2024-01-02 00:00:00 │  0.717 │  0.717 │ 41909.8 │  — │  ⋯
│   3 │ BTCUSDT-PERP │ 2024-01-02 01:00:00 │ -0.713 │ -0.713 │ 41841.3 │  — │  ⋯
│   4 │ BTCUSDT-PERP │ 2024-01-02 02:00:00 │  0.713 │  0.713 │ 41908.6 │  — │  ⋯
│   5 │ BTCUSDT-PERP │ 2024-01-02 09:00:00 │  0.702 │  0.702 │ 42208.4 │  — │  ⋯
│   6 │ BTCUSDT-PERP │ 2024-01-02 10:00:00 │ -0.003 │ -0.003 │ 42156.8 │  — │  ⋯
│   7 │ BTCUSDT-PERP │ 2024-01-02 11:00:00 │ -0.002 │ -0.002 │ 42088.9 │  — │  ⋯
│   8 │ BTCUSDT-PERP │ 2024-01-02 12:00:00 │ -0.697 │ -0.697 │ 42041.2 │  — │  ⋯
│   9 │ BTCUSDT-PERP │ 2024-01-02 13:00:00 │  0.694 │  0.694 │ 42104.5 │  — │  ⋯
│  10 │ BTCUSDT-PERP │ 2024-01-02 14:00:00 │ -0.002 │ -0.002 │ 42079.7 │  — │  ⋯
│  11 │ BTCUSDT-PERP │ 2024-01-02 15:00:00 │ -0.692 │ -0.692 │ 41990.6 │  — │  ⋯
│  12 │ BTCUSDT-PERP │ 2024-01-02 18:00:00 │  0.686 │  0.686 │ 42142.6 │  — │  ⋯
│  13 │ BTCUSDT-PERP │ 2024-01-02 19:00:00 │ -0.000 │ -0.000 │ 42164.9 │  — │  ⋯
│  14 │ BTCUSDT-PERP │ 2024-01-02 20:00:00 │  0.002 │  0.002 │ 42243.2 │  — │  ⋯
│  15 │ BTCUSDT-PERP │ 2024-01-02 21:00:00 │  0.003 │  0.003 │ 42347.4 │  — │  ⋯
│   ⋮ │            ⋮ │                   ⋮ │      ⋮ │      ⋮ │       ⋮ │  ⋮ │  ⋱
│ 600 │ BTCUSDT-PERP │ 2024-01-30 09:00:00 │  0.004 │  0.004 │ 43689.9 │  — │  ⋯
│ 601 │ BTCUSDT-PERP │ 2024-01-30 10:00:00 │ -0.008 │ -0.008 │ 43497.8 │  — │  ⋯
│ 602 │ BTCUSDT-PERP │ 2024-01-30 11:00:00 │  0.004 │  0.004 │ 43591.1 │  — │  ⋯
│ 603 │ BTCUSDT-PERP │ 2024-01-30 12:00:00 │ -0.001 │ -0.001 │ 43570.5 │  — │  ⋯
│ 604 │ BTCUSDT-PERP │ 2024-01-30 13:00:00 │  0.003 │  0.003 │ 43631.5 │  — │  ⋯
│ 605 │ BTCUSDT-PERP │ 2024-01-30 14:00:00 │  0.003 │  0.003 │ 43695.8 │  — │  ⋯
│ 606 │ BTCUSDT-PERP │ 2024-01-30 15:00:00 │ -0.002 │ -0.002 │ 43648.0 │  — │  ⋯
│ 607 │ BTCUSDT-PERP │ 2024-01-30 16:00:00 │ -0.887 │ -0.887 │ 43457.1 │  — │  ⋯
│ 608 │ BTCUSDT-PERP │ 2024-01-30 18:00:00 │ -0.882 │ -0.882 │ 43264.7 │  — │  ⋯
│ 609 │ BTCUSDT-PERP │ 2024-01-30 19:00:00 │  0.001 │  0.001 │ 43265.4 │  — │  ⋯
│ 610 │ BTCUSDT-PERP │ 2024-01-30 20:00:00 │ -0.001 │ -0.001 │ 43255.7 │  — │  ⋯
│ 611 │ BTCUSDT-PERP │ 2024-01-30 21:00:00 │ -0.007 │ -0.007 │ 43174.1 │  — │  ⋯
│ 612 │ BTCUSDT-PERP │ 2024-01-30 22:00:00 │ -0.000 │ -0.000 │ 43169.9 │  — │  ⋯
│ 613 │ BTCUSDT-PERP │ 2024-01-30 23:00:00 │ -0.022 │ -0.022 │ 42898.9 │  — │  ⋯
│ 614 │ BTCUSDT-PERP │ 2024-01-30 23:00:00 │  0.911 │  0.911 │ 42898.9 │  — │  ⋯
└─────┴──────────────┴─────────────────────┴────────┴────────┴─────────┴────┴───
                                                  6 columns and 584 rows omitted
…
