2. Portfolio trading · Fastback.jl
…
Equity balances (1)
┌─────┬──────────┐
│     │    Value │
├─────┼──────────┤
│ USD │ 13490.65 │
└─────┴──────────┘

Positions (0)

Trades (76)
┌────┬────────┬─────────────────────┬────────┬────────┬────────┬────┬────┬──────
│ ID │ Symbol │                Date │    Qty │ Filled │  Price │ TP │ SL │ Ccy ⋯
├────┼────────┼─────────────────────┼────────┼────────┼────────┼────┼────┼──────
│  1 │     GE │ 2022-02-02 21:00:00 │  26.32 │  26.32 │  75.98 │  — │  — │ USD ⋯
│  2 │     GE │ 2022-02-09 21:00:00 │ -26.32 │ -26.32 │  76.91 │  — │  — │ USD ⋯
│  3 │     GE │ 2022-03-14 20:00:00 │  27.95 │  27.95 │  71.71 │  — │  — │ USD ⋯
│  4 │   AAPL │ 2022-03-21 20:00:00 │  12.34 │  12.34 │ 163.51 │  — │  — │ USD ⋯
│  5 │   NVDA │ 2022-03-21 20:00:00 │   7.54 │   7.54 │ 267.02 │  — │  — │ USD ⋯
│  6 │   TSLA │ 2022-03-21 20:00:00 │   6.56 │   6.56 │ 307.05 │  — │  — │ USD ⋯
│  7 │   NVDA │ 2022-03-23 20:00:00 │  -7.54 │  -7.54 │ 256.03 │  — │  — │ USD ⋯
│  8 │     GE │ 2022-03-28 20:00:00 │ -27.95 │ -27.95 │  71.36 │  — │  — │ USD ⋯
│  9 │   AAPL │ 2022-03-31 20:00:00 │ -12.34 │ -12.34 │ 172.64 │  — │  — │ USD ⋯
│ 10 │   TSLA │ 2022-03-31 20:00:00 │  -6.56 │  -6.56 │ 359.20 │  — │  — │ USD ⋯
│ 11 │   AAPL │ 2022-07-08 20:00:00 │  14.24 │  14.24 │ 145.59 │  — │  — │ USD ⋯
│ 12 │   NVDA │ 2022-07-19 20:00:00 │  12.28 │  12.28 │ 169.75 │  — │  — │ USD ⋯
│ 13 │   TSLA │ 2022-07-19 20:00:00 │   8.49 │   8.49 │ 245.53 │  — │  — │ USD ⋯
│ 14 │     GE │ 2022-07-21 20:00:00 │  40.05 │  40.05 │  52.91 │  — │  — │ USD ⋯
│ 15 │   AAPL │ 2022-07-25 20:00:00 │ -14.24 │ -14.24 │ 151.44 │  — │  — │ USD ⋯
│  ⋮ │      ⋮ │                   ⋮ │      ⋮ │      ⋮ │      ⋮ │  ⋮ │  ⋮ │   ⋮ ⋱
│ 62 │     GE │ 2023-11-22 21:00:00 │ -21.25 │ -21.25 │ 119.52 │  — │  — │ USD ⋯
│ 63 │   NVDA │ 2023-11-22 21:00:00 │  -5.26 │  -5.26 │ 487.12 │  — │  — │ USD ⋯
│ 64 │   AAPL │ 2023-11-27 21:00:00 │ -13.58 │ -13.58 │ 189.55 │  — │  — │ USD ⋯
│ 65 │   NVDA │ 2023-12-18 21:00:00 │   4.97 │   4.97 │ 500.77 │  — │  — │ USD ⋯
│ 66 │   NVDA │ 2023-12-20 21:00:00 │  -4.97 │  -4.97 │ 481.11 │  — │  — │ USD ⋯
│ 67 │     GE │ 2024-01-10 21:00:00 │  19.03 │  19.03 │ 129.70 │  — │  — │ USD ⋯
│ 68 │   NVDA │ 2024-01-10 21:00:00 │   4.54 │   4.54 │ 543.50 │  — │  — │ USD ⋯
│ 69 │     GE │ 2024-01-16 21:00:00 │ -19.03 │ -19.03 │ 127.97 │  — │  — │ USD ⋯
│ 70 │     GE │ 2024-02-13 21:00:00 │  18.50 │  18.50 │ 141.77 │  — │  — │ USD ⋯
│ 71 │   NVDA │ 2024-02-16 21:00:00 │  -4.54 │  -4.54 │ 726.13 │  — │  — │ USD ⋯
│ 72 │   NVDA │ 2024-03-06 21:00:00 │   3.03 │   3.03 │ 887.00 │  — │  — │ USD ⋯
│ 73 │   NVDA │ 2024-03-11 20:00:00 │  -3.03 │  -3.03 │ 857.74 │  — │  — │ USD ⋯
│ 74 │   NVDA │ 2024-03-22 20:00:00 │   2.89 │   2.89 │ 942.89 │  — │  — │ USD ⋯
│ 75 │     GE │ 2024-03-25 20:00:00 │ -18.50 │ -18.50 │ 173.49 │  — │  — │ USD ⋯
│ 76 │   NVDA │ 2024-03-27 20:00:00 │  -2.89 │  -2.89 │ 902.50 │  — │  — │ USD ⋯
└────┴────────┴─────────────────────┴────────┴────────┴────────┴────┴────┴──────
                                                   3 columns and 46 rows omitted
…
