USD-M perpetual trading · Fastback.jl
…
Equity balances (1)
┌──────┬──────────┐
│      │    Value │
├──────┼──────────┤
│ USDT │ 12592.19 │
└──────┴──────────┘

Positions (0)

Trades (557)
┌─────┬──────────────┬─────────────────────┬────────┬────────┬─────────┬────┬────┬──────┬──────────┬────────┬────────────────┬──────────────┬───────┐
│  ID │       Symbol │                Date │    Qty │ Filled │   Price │ TP │ SL │  Ccy │ Fill P&L │ Cash Δ │ Return (gross) │ Return (net) │ Comm. │
├─────┼──────────────┼─────────────────────┼────────┼────────┼─────────┼────┼────┼──────┼──────────┼────────┼────────────────┼──────────────┼───────┤
│   1 │ BTCUSDT-PERP │ 2024-01-01 23:00:00 │ -0.716 │ -0.716 │ 41863.2 │  — │  — │ USDT │    -3.00 │ -14.99 │              — │            — │ 11.99 │
│   2 │ BTCUSDT-PERP │ 2024-01-02 00:00:00 │  0.716 │  0.716 │ 41914.2 │  — │  — │ USDT │    -3.00 │ -15.00 │         -0.12% │       -0.20% │ 12.00 │
│   3 │ BTCUSDT-PERP │ 2024-01-02 01:00:00 │ -0.713 │ -0.713 │ 41838.1 │  — │  — │ USDT │    -2.98 │ -14.92 │              — │            — │ 11.93 │
│   4 │ BTCUSDT-PERP │ 2024-01-02 02:00:00 │  0.713 │  0.713 │ 41911.6 │  — │  — │ USDT │    -2.99 │ -14.94 │         -0.18% │       -0.26% │ 11.95 │
│   5 │ BTCUSDT-PERP │ 2024-01-02 09:00:00 │  0.701 │  0.701 │ 42212.1 │  — │  — │ USDT │    -2.96 │ -14.79 │              — │            — │ 11.84 │
│   6 │ BTCUSDT-PERP │ 2024-01-02 10:00:00 │ -0.003 │ -0.003 │ 42153.1 │  — │  — │ USDT │    -0.01 │  -0.06 │         -0.14% │       -0.22% │  0.05 │
│   7 │ BTCUSDT-PERP │ 2024-01-02 11:00:00 │ -0.002 │ -0.002 │ 42083.8 │  — │  — │ USDT │    -0.01 │  -0.04 │         -0.30% │       -0.38% │  0.03 │
│   8 │ BTCUSDT-PERP │ 2024-01-02 12:00:00 │ -0.696 │ -0.696 │ 42037.0 │  — │  — │ USDT │    -2.93 │ -14.63 │         -0.41% │       -0.49% │ 11.70 │
│   9 │ BTCUSDT-PERP │ 2024-01-02 13:00:00 │  0.692 │  0.692 │ 42109.3 │  — │  — │ USDT │    -2.91 │ -14.57 │              — │            — │ 11.66 │
│  10 │ BTCUSDT-PERP │ 2024-01-02 14:00:00 │ -0.002 │ -0.002 │ 42077.0 │  — │  — │ USDT │    -0.01 │  -0.04 │         -0.08% │       -0.16% │  0.03 │
│  11 │ BTCUSDT-PERP │ 2024-01-02 15:00:00 │ -0.690 │ -0.690 │ 41986.9 │  — │  — │ USDT │    -2.90 │ -14.49 │         -0.29% │       -0.37% │ 11.59 │
│  12 │ BTCUSDT-PERP │ 2024-01-02 18:00:00 │  0.684 │  0.684 │ 42146.0 │  — │  — │ USDT │    -2.88 │ -14.41 │              — │            — │ 11.53 │
│  13 │ BTCUSDT-PERP │ 2024-01-02 20:00:00 │  0.002 │  0.002 │ 42247.1 │  — │  — │ USDT │    -0.01 │  -0.04 │              — │            — │  0.03 │
│  14 │ BTCUSDT-PERP │ 2024-01-02 21:00:00 │  0.004 │  0.004 │ 42351.7 │  — │  — │ USDT │    -0.02 │  -0.08 │              — │            — │  0.07 │
│  15 │ BTCUSDT-PERP │ 2024-01-02 22:00:00 │  0.005 │  0.005 │ 42518.3 │  — │  — │ USDT │    -0.02 │  -0.11 │              — │            — │  0.09 │
│   ⋮ │            ⋮ │                   ⋮ │      ⋮ │      ⋮ │       ⋮ │  ⋮ │  ⋮ │    ⋮ │        ⋮ │      ⋮ │              ⋮ │            ⋮ │     ⋮ │
│ 543 │ BTCUSDT-PERP │ 2024-01-30 09:00:00 │  0.004 │  0.004 │ 43695.2 │  — │  — │ USDT │    -0.02 │  -0.09 │              — │            — │  0.07 │
│ 544 │ BTCUSDT-PERP │ 2024-01-30 10:00:00 │ -0.008 │ -0.008 │ 43492.7 │  — │  — │ USDT │    -0.03 │  -0.17 │         -0.19% │       -0.27% │  0.14 │
│ 545 │ BTCUSDT-PERP │ 2024-01-30 11:00:00 │  0.004 │  0.004 │ 43595.4 │  — │  — │ USDT │    -0.02 │  -0.09 │              — │            — │  0.07 │
│ 546 │ BTCUSDT-PERP │ 2024-01-30 12:00:00 │ -0.001 │ -0.001 │ 43564.8 │  — │  — │ USDT │    -0.00 │  -0.02 │         -0.03% │       -0.11% │  0.02 │
│ 547 │ BTCUSDT-PERP │ 2024-01-30 13:00:00 │  0.002 │  0.002 │ 43636.5 │  — │  — │ USDT │    -0.01 │  -0.04 │              — │            — │  0.03 │
│ 548 │ BTCUSDT-PERP │ 2024-01-30 14:00:00 │  0.003 │  0.003 │ 43701.2 │  — │  — │ USDT │    -0.01 │  -0.07 │              — │            — │  0.05 │
│ 549 │ BTCUSDT-PERP │ 2024-01-30 15:00:00 │ -0.002 │ -0.002 │ 43644.5 │  — │  — │ USDT │    -0.01 │  -0.04 │          0.16% │        0.08% │  0.03 │
│ 550 │ BTCUSDT-PERP │ 2024-01-30 16:00:00 │ -0.859 │ -0.859 │ 43453.8 │  — │  — │ USDT │    -3.74 │ -18.67 │         -0.28% │       -0.36% │ 14.93 │
│ 551 │ BTCUSDT-PERP │ 2024-01-30 18:00:00 │ -0.854 │ -0.854 │ 43259.7 │  — │  — │ USDT │    -3.69 │ -18.47 │              — │            — │ 14.78 │
│ 552 │ BTCUSDT-PERP │ 2024-01-30 19:00:00 │  0.002 │  0.002 │ 43269.3 │  — │  — │ USDT │    -0.01 │  -0.04 │         -0.02% │       -0.10% │  0.03 │
│ 553 │ BTCUSDT-PERP │ 2024-01-30 20:00:00 │ -0.001 │ -0.001 │ 43252.3 │  — │  — │ USDT │    -0.00 │  -0.02 │              — │            — │  0.02 │
│ 554 │ BTCUSDT-PERP │ 2024-01-30 21:00:00 │ -0.006 │ -0.006 │ 43169.1 │  — │  — │ USDT │    -0.03 │  -0.13 │              — │            — │  0.10 │
│ 555 │ BTCUSDT-PERP │ 2024-01-30 22:00:00 │ -0.001 │ -0.001 │ 43164.9 │  — │  — │ USDT │    -0.00 │  -0.02 │              — │            — │  0.02 │
│ 556 │ BTCUSDT-PERP │ 2024-01-30 23:00:00 │ -0.021 │ -0.021 │ 42893.7 │  — │  — │ USDT │    -0.09 │  -0.45 │              — │            — │  0.36 │
│ 557 │ BTCUSDT-PERP │ 2024-01-30 23:00:00 │  0.881 │  0.881 │ 42902.2 │  — │  — │ USDT │    -3.78 │ -18.90 │          0.80% │        0.72% │ 15.12 │
└─────┴──────────────┴─────────────────────┴────────┴────────┴─────────┴────┴────┴──────┴──────────┴────────┴────────────────┴──────────────┴───────┘
                                                                                                                                     527 rows omitted
…
